…
``` r
g_content(x, TRUE) %>% 
  print(n = 20)
```

    ## # A tibble: 26 x 6
    ##    item_type item_type_descr display_string                                           selector     hostname       port 
    ##    <chr>     <chr>           <chr>                                                    <chr>        <chr>          <chr>
    ##  1 0         text            Does this gopher menu look correct?                      /gopher/pro… gopher.floodg… 70   
    ##  2 1         menu            Getting started with gopher, software, more              /gopher      gopher.floodg… 70   
    ##  3 0         text            Using your web browser to explore Gopherspace            /gopher/wbg… gopher.floodg… 70   
    ##  4 1         menu            The Overbite Project: Gopher clients for mobile and des… /overbite    gopher.floodg… 70   
    ##  5 1         menu            Other Gopher clients for various platforms               /gopher/cli… gopher.floodg… 70   
    ##  6 1         menu            Search Gopherspace with Veronica-2                       /v2          gopher.floodg… 70   
    ##  7 7         index           Search Veronica-2                                        /v2/vs       gopher.floodg… 70   
    ##  8 1         menu            All the gopher servers in the world (that we know of)    /world       gopher.floodg… 70   
    ##  9 1         menu            New Gopher servers since 1999                            /new         gopher.floodg… 70   
    ## 10 1         menu            Weather maps and forecasts via Floodgap Groundhog        /groundhog   gopher.floodg… 70   
    ## 11 1         menu            News and headline feeds via Flood Feeds                  /feeds       gopher.floodg… 70   
    ## 12 1         menu            Most current Floodgap news feeds                         /feeds/late… gopher.floodg… 70   
    ## 13 0         text            Caltrans California highway conditions                   /calroads    gopher.floodg… 70   
    ## 14 1         menu            Floodgap File Archives and Mirrors                       /archive     gopher.floodg… 70   
    ## 15 1         menu            Floodgap Gopher Fun and Games                            /fun         gopher.floodg… 70   
    ## 16 1         menu            Floodgap users and staff gopher pages                    /users       gopher.floodg… 70   
    ## 17 1         menu            The New GopherVR: A Virtual Reality View of Gopherspace  /gophervr    gopher.floodg… 70   
    ## 18 1         menu            The Bucktooth gopher server                              /buck        gopher.floodg… 70   
    ## 19 1         menu            Floodgap Gopher Statistics Project                       /gstats      gopher.floodg… 70   
    ## 20 0         text            Yes, gopher.floodgap.com is the same as gopher.ptloma.e… /ptloma      gopher.floodg… 70   
    ## # ... with 6 more rows
…
``` r
g_content(x3, TRUE) %>% 
  filter(item_type_descr == "info")
```

    ## # A tibble: 47 x 6
    ##    item_type item_type_descr display_string                                 selector hostname   port 
    ##    <chr>     <chr>           <chr>                                          <chr>    <chr>      <chr>
    ##  1 i         info            ""                                             v2/      error.host 1    
    ##  2 i         info            Veronica-2 2.058.2 (C)2000-2016 Cameron Kaiser v2/      error.host 1    
    ##  3 i         info            Engine version 0.4.051                         v2/      error.host 1    
    ##  4 i         info            ** Search in progress, please wait **          v2/      error.host 1    
    ##  5 i         info            ""                                             v2/      error.host 1    
    ##  6 i         info            *** Search terms: xkcd ***                     v2/      error.host 1    
    ##  7 i         info            First 30 selectors displayed (page 1).         v2/      error.host 1    
    ##  8 i         info            Results sorted by apparent relevance.          v2/      error.host 1    
    ##  9 i         info            Approximately 300 total matches.               v2/      error.host 1    
    ## 10 i         info            ""                                             v2/      error.host 1    
    ## # ... with 37 more rows

``` r
g_content(x3, TRUE) %>% 
  filter(item_type_descr == "menu")
```

    ## # A tibble: 33 x 6
    ##    item_type item_type_descr display_string                                     selector           hostname       port 
    ##    <chr>     <chr>           <chr>                                              <chr>              <chr>          <chr>
    ##  1 1         menu            Floodgap Systems gopher root                       /                  gopher.floodg… 70   
    ##  2 1         menu            xkcd - A Webcomic of Romance, Sarcasm, Math and L… /fun/xkcd          gopher.floodg… 70   
    ##  3 1         menu            xkcd - A Webcomic - Girl sleeping (Sketch -- 11th… /fun/xkcd/comics/… gopher.floodg… 70   
    ##  4 1         menu            xkcd - A Webcomic - Guest Week: Jeph Jacques (Que… /fun/xkcd/comics/… gopher.floodg… 70   
    ##  5 1         menu            xkcd - A Webcomic - Guest Week: David Troupes (Bu… /fun/xkcd/comics/… gopher.floodg… 70   
    ##  6 1         menu            xkcd - A Webcomic - Guest Week: Jeffrey Rowland (… /fun/xkcd/comics/… gopher.floodg… 70   
    ##  7 1         menu            xkcd - A Webcomic - Firefox and Witchcraft - The … /fun/xkcd/comics/… gopher.floodg… 70   
    ##  8 1         menu            xkcd - A Webcomic - Serenity is coming out tomorr… /fun/xkcd/comics/… gopher.floodg… 70   
    ##  9 1         menu            xkcd - A Webcomic - I Have Owned Two Electric Ska… /fun/xkcd/comics/… gopher.floodg… 70   
    ## 10 1         menu            xkcd - A Webcomic - Electric Skateboard (Double C… /fun/xkcd/comics/… gopher.floodg… 70   
    ## # ... with 23 more rows
